<?xml version="1.0" encoding="UTF-8" standalone="no"?>
<svg
   xmlns:dc="http://purl.org/dc/elements/1.1/"
   xmlns:cc="http://creativecommons.org/ns#"
   xmlns:rdf="http://www.w3.org/1999/02/22-rdf-syntax-ns#"
   xmlns:svg="http://www.w3.org/2000/svg"
   xmlns="http://www.w3.org/2000/svg"
   version="1.1"
   width="370"
   height="370"
   id="svg3032">
  <defs
     id="defs3034" />
  <metadata
     id="metadata3037">
    <rdf:RDF>
      <cc:Work
         rdf:about="">
        <dc:format>image/svg+xml</dc:format>
        <dc:type
           rdf:resource="http://purl.org/dc/dcmitype/StillImage" />
        <dc:title></dc:title>
      </cc:Work>
    </rdf:RDF>
  </metadata>
  <g
     transform="translate(0,-682.36216)"
     id="layer1">
    <rect
       width="371"
       height="371"
       rx="40"
       ry="40"
       x="0.1005"
       y="681.26166"
       id="rect3060"
       style="fill:#000000;stroke:#999999;stroke-width:0;stroke-miterlimit:4;stroke-opacity:1;stroke-dasharray:none" />
    <g
       transform="matrix(0.70710678,-0.70710678,0.70710678,0.70710678,-348.25704,736.67408)"
       id="g3151">
      <rect
         width="255"
         height="45"
         x="158.46545"
         y="447.18137"
         id="rect3129"
         style="fill:#ffffff;stroke:#ffffff;stroke-width:0.20100001;stroke-miterlimit:4;stroke-opacity:1;stroke-dasharray:none" />
      <rect
         width="255"
         height="45"
         x="342.18137"
         y="-308.46545"
         transform="matrix(0,1,-1,0,0,0)"
         id="rect3129-4"
         style="fill:#ffffff;stroke:#ffffff;stroke-width:0.20100001;stroke-miterlimit:4;stroke-opacity:1;stroke-dasharray:none" />
    </g>
  </g>
</svg>
